data/NewFile3.csv

CH2,CH4,Start,Increment,
Volt,Volt,-1.28800e-02,2.00000e-05
1.92e+00,-1.28e-03,
1.92e+00,-1.28e-03,
1.92e+00,-1.52e-03,
1.92e+00,-1.52e-03,
1.92e+00,-1.28e-03,
1.92e+00,-1.28e-03,
1.92e+00,-1.44e-03,
1.92e+00,-1.44e-03,
1.92e+00,-1.28e-03,
1.92e+00,-1.28e-03,
1.90e+00,-1.04e-03,
1.90e+00,-1.04e-03,
1.90e+00,-1.28e-03,
1.90e+00,-1.28e-03,
1.92e+00,-1.60e-03,
1.92e+00,-1.60e-03,
1.90e+00,-1.44e-03,
1.90e+00,-1.44e-03,
1.92e+00,-1.28e-03,
1.92e+00,-1.28e-03,
1.92e+00,-1.36e-03,
1.92e+00,-1.36e-03,
1.92e+00,-1.12e-03,
1.92e+00,-1.12e-03,
1.92e+00,-1.36e-03,
1.92e+00,-1.36e-03,
1.90e+00,-1.36e-03,
1.90e+00,-1.36e-03,
1.92e+00,-1.68e-03,
1.92e+00,-1.68e-03,
1.90e+00,-1.52e-03,
1.90e+00,-1.52e-03,
1.92e+00,-1.52e-03,
1.92e+00,-1.52e-03,
1.92e+00,-1.36e-03,
1.92e+00,-1.36e-03,
1.92e+00,-1.60e-03,
1.92e+00,-1.60e-03,
1.90e+00,-1.28e-03,
1.90e+00,-1.28e-03,
1.92e+00,-1.52e-03,
1.92e+00,-1.52e-03,
1.92e+00,-1.68e-03,
1.92e+00,-1.68e-03,
1.92e+00,-1.60e-03,
1.92e+00,-1.60e-03,
1.92e+00,-1.44e-03,
1.92e+00,-1.44e-03,
1.90e+00,-8.80e-04,
1.90e+00,-8.80e-04,
1.92e+00,-1.28e-03,
1.92e+00,-1.28e-03,
1.90e+00,-1.44e-03,
1.90e+00,-1.44e-03,
1.92e+00,-1.28e-03,
1.92e+00,-1.28e-03,
1.92e+00,-1.20e-03,
1.92e+00,-1.20e-03,
1.92e+00,-1.44e-03,
1.92e+00,-1.44e-03,
1.90e+00,-1.20e-03,
1.90e+00,-1.20e-03,
1.92e+00,-1.28e-03,
1.92e+00,-1.28e-03,
1.90e+00,-1.20e-03,
1.90e+00,-1.20e-03,
1.92e+00,-1.44e-03,
1.92e+00,-1.44e-03,
1.92e+00,-1.44e-03,
1.92e+00,-1.44e-03,
1.92e+00,-1.20e-03,
1.92e+00,-1.20e-03,
1.92e+00,-1.36e-03,
1.92e+00,-1.36e-03,
1.92e+00,-1.52e-03,
1.92e+00,-1.52e-03,
1.90e+00,-1.60e-03,
1.90e+00,-1.60e-03,
1.90e+00,-1.52e-03,
1.90e+00,-1.52e-03,
1.92e+00,-1.44e-03,
1.92e+00,-1.44e-03,
1.92e+00,-1.68e-03,
1.92e+00,-1.68e-03,
1.92e+00,-1.28e-03,
1.92e+00,-1.28e-03,
1.92e+00,-1.44e-03,
1.92e+00,-1.44e-03,
1.92e+00,-9.60e-04,
1.92e+00,-9.60e-04,
1.92e+00,-1.52e-03,
1.92e+00,-1.52e-03,
1.92e+00,-1.44e-03,
1.92e+00,-1.44e-03,
1.92e+00,-1.44e-03,
1.92e+00,-1.44e-03,
1.92e+00,-1.52e-03,
1.92e+00,-1.52e-03,
1.92e+00,-1.28e-03,
1.92e+00,-1.28e-03,
1.92e+00,-1.68e-03,
1.92e+00,-1.68e-03,
1.92e+00,-1.36e-03,
1.92e+00,-1.36e-03,
1.92e+00,-1.52e-03,
1.92e+00,-1.52e-03,
1.90e+00,-1.20e-03,
1.90e+00,-1.20e-03,
1.92e+00,-1.28e-03,
1.92e+00,-1.28e-03,
1.92e+00,-1.04e-03,
1.92e+00,-1.04e-03,
1.92e+00,-1.04e-03,
1.92e+00,-1.04e-03,
1.90e+00,-1.52e-03,
1.90e+00,-1.52e-03,
1.92e+00,-9.60e-04,
1.92e+00,-9.60e-04,
1.92e+00,-1.44e-03,
1.92e+00,-1.44e-03,
1.92e+00,-1.44e-03,
1.92e+00,-1.44e-03,
1.90e+00,-1.28e-03,
1.90e+00,-1.28e-03,
1.92e+00,-1.60e-03,
1.92e+00,-1.60e-03,
1.90e+00,-1.44e-03,
1.90e+00,-1.44e-03,
1.92e+00,-1.04e-03,
1.92e+00,-1.04e-03,
1.90e+00,-1.28e-03,
1.90e+00,-1.28e-03,
1.92e+00,-1.20e-03,
1.92e+00,-1.20e-03,
1.90e+00,-1.04e-03,
1.90e+00,-1.04e-03,
1.90e+00,-1.36e-03,
1.90e+00,-1.36e-03,
1.90e+00,-1.36e-03,
1.90e+00,-1.36e-03,
1.90e+00,-1.60e-03,
1.90e+00,-1.60e-03,
1.90e+00,-1.28e-03,
1.90e+00,-1.28e-03,
1.92e+00,-1.52e-03,
1.92e+00,-1.52e-03,
1.90e+00,-1.44e-03,
1.90e+00,-1.44e-03,
1.90e+00,-1.12e-03,
1.90e+00,-1.12e-03,
1.90e+00,-1.12e-03,
1.90e+00,-1.12e-03,
1.90e+00,-1.44e-03,
1.90e+00,-1.44e-03,
1.92e+00,-1.28e-03,
1.92e+00,-1.28e-03,
1.92e+00,-1.28e-03,
1.92e+00,-1.28e-03,
1.92e+00,-1.44e-03,
1.92e+00,-1.44e-03,
1.90e+00,-1.44e-03,
1.90e+00,-1.44e-03,
1.92e+00,-1.12e-03,
1.92e+00,-1.12e-03,
1.92e+00,-1.44e-03,
1.92e+00,-1.44e-03,
1.90e+00,-1.28e-03,
1.90e+00,-1.28e-03,
1.90e+00,-1.04e-03,
1.90e+00,-1.04e-03,
1.92e+00,-1.36e-03,
1.92e+00,-1.36e-03,
1.90e+00,-1.12e-03,
1.90e+00,-1.12e-03,
1.92e+00,-1.44e-03,
1.92e+00,-1.44e-03,
1.92e+00,-1.44e-03,
1.92e+00,-1.44e-03,
1.92e+00,-1.52e-03,
1.92e+00,-1.52e-03,
1.92e+00,-1.28e-03,
1.92e+00,-1.28e-03,
1.92e+00,-1.28e-03,
1.92e+00,-1.28e-03,
1.92e+00,-1.20e-03,
1.92e+00,-1.20e-03,
1.92e+00,-1.44e-03,
1.92e+00,-1.44e-03,
1.92e+00,-1.28e-03,
1.92e+00,-1.28e-03,
1.92e+00,-8.80e-04,
1.92e+00,-8.80e-04,
1.90e+00,-1.68e-03,
1.90e+00,-1.68e-03,
1.92e+00,-1.36e-03,
1.92e+00,-1.36e-03,
1.92e+00,-1.52e-03,
1.92e+00,-1.52e-03,
1.92e+00,-8.80e-04,
1.92e+00,-8.80e-04,
1.90e+00,-1.60e-03,
1.90e+00,-1.60e-03,
1.92e+00,-1.52e-03,
1.92e+00,-1.52e-03,
1.92e+00,-1.44e-03,
1.92e+00,-1.44e-03,
1.92e+00,-1.44e-03,
1.92e+00,-1.44e-03,
1.92e+00,-1.84e-03,
1.92e+00,-1.84e-03,
2.00e-01,-1.20e-03,
2.00e-01,-1.20e-03,
2.00e-01,-1.20e-03,
2.00e-01,-1.20e-03,
2.00e-01,-1.04e-03,
2.00e-01,-1.04e-03,
2.20e-01,-9.60e-04,
2.20e-01,-9.60e-04,
2.20e-01,-6.40e-04,
2.20e-01,-6.40e-04,
2.00e-01,-9.60e-04,
2.00e-01,-9.60e-04,
2.00e-01,-9.60e-04,
2.00e-01,-9.60e-04,
2.00e-01,-1.04e-03,
2.00e-01,-1.04e-03,
2.20e-01,-9.60e-04,
2.20e-01,-9.60e-04,
2.20e-01,-1.20e-03,
2.20e-01,-1.20e-03,
2.20e-01,-8.80e-04,
2.20e-01,-8.80e-04,
2.20e-01,-1.12e-03,
2.20e-01,-1.12e-03,
2.00e-01,-1.04e-03,
2.00e-01,-1.04e-03,
2.00e-01,-1.36e-03,
2.00e-01,-1.36e-03,
2.00e-01,-1.12e-03,
2.00e-01,-1.12e-03,
2.00e-01,-8.80e-04,
2.00e-01,-8.80e-04,
2.00e-01,-1.52e-03,
2.00e-01,-1.52e-03,
2.20e-01,-1.12e-03,
2.20e-01,-1.12e-03,
2.20e-01,-1.04e-03,
2.20e-01,-1.04e-03,
2.20e-01,-9.60e-04,
2.20e-01,-9.60e-04,
2.20e-01,-1.44e-03,
2.20e-01,-1.44e-03,
2.20e-01,-1.20e-03,
2.20e-01,-1.20e-03,
2.00e-01,-1.36e-03,
2.00e-01,-1.36e-03,
2.00e-01,-8.00e-04,
2.00e-01,-8.00e-04,
2.00e-01,-1.12e-03,
2.00e-01,-1.12e-03,
2.00e-01,-8.80e-04,
2.00e-01,-8.80e-04,
2.20e-01,-1.12e-03,
2.20e-01,-1.12e-03,
2.00e-01,-1.20e-03,
2.00e-01,-1.20e-03,
2.20e-01,-1.04e-03,
2.20e-01,-1.04e-03,
2.20e-01,-1.36e-03,
2.20e-01,-1.36e-03,
2.20e-01,-1.04e-03,
2.20e-01,-1.04e-03,
2.20e-01,-7.20e-04,
2.20e-01,-7.20e-04,
2.00e-01,-1.28e-03,
2.00e-01,-1.28e-03,
2.00e-01,-1.12e-03,
2.00e-01,-1.12e-03,
2.00e-01,-1.44e-03,
2.00e-01,-1.44e-03,
2.00e-01,-8.80e-04,
2.00e-01,-8.80e-04,
2.00e-01,-1.28e-03,
2.00e-01,-1.28e-03,
2.20e-01,-9.60e-04,
2.20e-01,-9.60e-04,
2.20e-01,-1.20e-03,
2.20e-01,-1.20e-03,
2.00e-01,-8.00e-04,
2.00e-01,-8.00e-04,
2.00e-01,-1.12e-03,
2.00e-01,-1.12e-03,
2.00e-01,-1.20e-03,
2.00e-01,-1.20e-03,
2.00e-01,-8.00e-04,
2.00e-01,-8.00e-04,
2.00e-01,-1.44e-03,
2.00e-01,-1.44e-03,
2.00e-01,-8.80e-04,
2.00e-01,-8.80e-04,
2.00e-01,-9.60e-04,
2.00e-01,-9.60e-04,
2.00e-01,-8.80e-04,
2.00e-01,-8.80e-04,
2.00e-01,-9.60e-04,
2.00e-01,-9.60e-04,
2.20e-01,-6.40e-04,
2.20e-01,-6.40e-04,
2.00e-01,-7.20e-04,
2.00e-01,-7.20e-04,
2.00e-01,-5.60e-04,
2.00e-01,-5.60e-04,
2.00e-01,-7.20e-04,
2.00e-01,-7.20e-04,
2.00e-01,-2.40e-04,
2.00e-01,-2.40e-04,
2.00e-01,-5.60e-04,
2.00e-01,-5.60e-04,
2.00e-01,-4.00e-04,
2.00e-01,-4.00e-04,
2.00e-01,-4.80e-04,
2.00e-01,-4.80e-04,
2.20e-01,8.00e-05,
2.20e-01,8.00e-05,
2.20e-01,8.00e-05,
2.20e-01,8.00e-05,
2.00e-01,1.60e-04,
2.00e-01,1.60e-04,
2.00e-01,3.20e-04,
2.00e-01,3.20e-04,
2.00e-01,2.40e-04,
2.00e-01,2.40e-04,
2.00e-01,6.40e-04,
2.00e-01,6.40e-04,
2.20e-01,6.40e-04,
2.20e-01,6.40e-04,
2.20e-01,6.40e-04,
2.20e-01,6.40e-04,
2.00e-01,6.40e-04,
2.00e-01,6.40e-04,
2.00e-01,8.00e-04,
2.00e-01,8.00e-04,
2.00e-01,1.04e-03,
2.00e-01,1.04e-03,
2.00e-01,1.20e-03,
2.00e-01,1.20e-03,
2.00e-01,9.60e-04,
2.00e-01,9.60e-04,
2.00e-01,1.28e-03,
2.00e-01,1.28e-03,
2.00e-01,9.60e-04,
2.00e-01,9.60e-04,
2.00e-01,1.60e-03,
2.00e-01,1.60e-03,
2.00e-01,1.28e-03,
2.00e-01,1.28e-03,
2.00e-01,1.04e-03,
2.00e-01,1.04e-03,
2.00e-01,1.44e-03,
2.00e-01,1.44e-03,
2.00e-01,1.28e-03,
2.00e-01,1.28e-03,
2.00e-01,1.44e-03,
2.00e-01,1.44e-03,
2.00e-01,1.60e-03,
2.00e-01,1.60e-03,
2.00e-01,1.52e-03,
2.00e-01,1.52e-03,
2.00e-01,1.36e-03,
2.00e-01,1.36e-03,
2.00e-01,1.44e-03,
2.00e-01,1.44e-03,
2.00e-01,1.60e-03,
2.00e-01,1.60e-03,
2.20e-01,1.36e-03,
2.20e-01,1.36e-03,
2.00e-01,1.28e-03,
2.00e-01,1.28e-03,
2.00e-01,1.84e-03,
2.00e-01,1.84e-03,
2.00e-01,1.44e-03,
2.00e-01,1.44e-03,
2.00e-01,1.20e-03,
2.00e-01,1.20e-03,
2.20e-01,1.60e-03,
2.20e-01,1.60e-03,
2.20e-01,1.84e-03,
2.20e-01,1.84e-03,
2.20e-01,1.76e-03,
2.20e-01,1.76e-03,
2.00e-01,1.84e-03,
2.00e-01,1.84e-03,
2.00e-01,1.76e-03,
2.00e-01,1.76e-03,
2.00e-01,1.92e-03,
2.00e-01,1.92e-03,
2.20e-01,1.52e-03,
2.20e-01,1.52e-03,
2.20e-01,1.92e-03,
2.20e-01,1.92e-03,
2.20e-01,1.68e-03,
2.20e-01,1.68e-03,
2.00e-01,1.68e-03,
2.00e-01,1.68e-03,
2.00e-01,1.92e-03,
2.00e-01,1.92e-03,
2.00e-01,1.84e-03,
2.00e-01,1.84e-03,
2.00e-01,1.60e-03,
2.00e-01,1.60e-03,
2.00e-01,1.44e-03,
2.00e-01,1.44e-03,
2.00e-01,1.60e-03,
2.00e-01,1.60e-03,
2.00e-01,1.52e-03,
2.00e-01,1.52e-03,
2.20e-01,1.68e-03,
2.20e-01,1.68e-03,
2.20e-01,1.52e-03,
2.20e-01,1.52e-03,
2.00e-01,1.84e-03,
2.00e-01,1.84e-03,
2.00e-01,1.68e-03,
2.00e-01,1.68e-03,
2.00e-01,1.84e-03,
2.00e-01,1.84e-03,
2.00e-01,1.28e-03,
2.00e-01,1.28e-03,
2.20e-01,1.92e-03,
2.20e-01,1.92e-03,
2.00e-01,1.76e-03,
2.00e-01,1.76e-03,
2.00e-01,1.68e-03,
2.00e-01,1.68e-03,
2.00e-01,1.84e-03,
2.00e-01,1.84e-03,
2.20e-01,1.68e-03,
2.20e-01,1.68e-03,
2.20e-01,1.76e-03,
2.20e-01,1.76e-03,
2.00e-01,1.92e-03,
2.00e-01,1.92e-03,
2.00e-01,1.76e-03,
2.00e-01,1.76e-03,
2.20e-01,1.84e-03,
2.20e-01,1.84e-03,
2.00e-01,1.92e-03,
2.00e-01,1.92e-03,
2.20e-01,1.76e-03,
2.20e-01,1.76e-03,
2.20e-01,1.68e-03,
2.20e-01,1.68e-03,
2.00e-01,2.00e-03,
2.00e-01,2.00e-03,
2.00e-01,1.92e-03,
2.00e-01,1.92e-03,
2.00e-01,2.00e-03,
2.00e-01,2.00e-03,
2.00e-01,1.36e-03,
2.00e-01,1.36e-03,
2.20e-01,1.76e-03,
2.20e-01,1.76e-03,
2.20e-01,1.68e-03,
2.20e-01,1.68e-03,
2.20e-01,1.84e-03,
2.20e-01,1.84e-03,
2.20e-01,1.76e-03,
2.20e-01,1.76e-03,
2.00e-01,1.84e-03,
2.00e-01,1.84e-03,
2.00e-01,1.52e-03,
2.00e-01,1.52e-03,
2.00e-01,1.68e-03,
2.00e-01,1.68e-03,
2.20e-01,1.76e-03,
2.20e-01,1.76e-03,
2.20e-01,1.84e-03,
2.20e-01,1.84e-03,
2.00e-01,1.76e-03,
2.00e-01,1.76e-03,
2.00e-01,1.84e-03,
2.00e-01,1.84e-03,
2.00e-01,2.00e-03,
2.00e-01,2.00e-03,
2.20e-01,1.92e-03,
2.20e-01,1.92e-03,
2.20e-01,1.68e-03,
2.20e-01,1.68e-03,
2.20e-01,1.76e-03,
2.20e-01,1.76e-03,
2.00e-01,2.08e-03,
2.00e-01,2.08e-03,
2.00e-01,1.52e-03,
2.00e-01,1.52e-03,
2.00e-01,1.68e-03,
2.00e-01,1.68e-03,
2.20e-01,1.92e-03,
2.20e-01,1.92e-03,
2.20e-01,1.84e-03,
2.20e-01,1.84e-03,
2.00e-01,1.68e-03,
2.00e-01,1.68e-03,
2.00e-01,1.68e-03,
2.00e-01,1.68e-03,
2.20e-01,1.84e-03,
2.20e-01,1.84e-03,
2.20e-01,2.08e-03,
2.20e-01,2.08e-03,
2.00e-01,1.84e-03,
2.00e-01,1.84e-03,
2.00e-01,1.36e-03,
2.00e-01,1.36e-03,
2.20e-01,1.68e-03,
2.20e-01,1.68e-03,
2.20e-01,1.68e-03,
2.20e-01,1.68e-03,
2.20e-01,2.00e-03,
2.20e-01,2.00e-03,
2.00e-01,1.92e-03,
2.00e-01,1.92e-03,
2.00e-01,1.76e-03,
2.00e-01,1.76e-03,
2.20e-01,1.76e-03,
2.20e-01,1.76e-03,
2.20e-01,1.76e-03,
2.20e-01,1.76e-03,
2.20e-01,1.84e-03,
2.20e-01,1.84e-03,
2.20e-01,1.76e-03,
2.20e-01,1.76e-03,
2.20e-01,1.60e-03,
2.20e-01,1.60e-03,
2.20e-01,1.68e-03,
2.20e-01,1.68e-03,
2.00e-01,1.44e-03,
2.00e-01,1.44e-03,
2.00e-01,1.60e-03,
2.00e-01,1.60e-03,
2.20e-01,2.08e-03,
2.20e-01,2.08e-03,
2.20e-01,2.16e-03,
2.20e-01,2.16e-03,
2.20e-01,1.92e-03,
2.20e-01,1.92e-03,
2.20e-01,2.00e-03,
2.20e-01,2.00e-03,
2.20e-01,1.68e-03,
2.20e-01,1.68e-03,
2.20e-01,1.76e-03,
2.20e-01,1.76e-03,
2.00e-01,2.00e-03,
2.00e-01,2.00e-03,
2.00e-01,1.84e-03,
2.00e-01,1.84e-03,
2.20e-01,1.76e-03,
2.20e-01,1.76e-03,
2.20e-01,1.76e-03,
2.20e-01,1.76e-03,
2.20e-01,1.44e-03,
2.20e-01,1.44e-03,
2.20e-01,1.84e-03,
2.20e-01,1.84e-03,
2.20e-01,1.52e-03,
2.20e-01,1.52e-03,
2.00e-01,2.08e-03,
2.00e-01,2.08e-03,
2.00e-01,2.16e-03,
2.00e-01,2.16e-03,
2.20e-01,2.00e-03,
2.20e-01,2.00e-03,
2.20e-01,1.60e-03,
2.20e-01,1.60e-03,
2.20e-01,1.92e-03,
2.20e-01,1.92e-03,
2.20e-01,2.00e-03,
2.20e-01,2.00e-03,
2.20e-01,1.76e-03,
2.20e-01,1.76e-03,
2.00e-01,1.84e-03,
2.00e-01,1.84e-03,
2.00e-01,1.76e-03,
2.00e-01,1.76e-03,
2.00e-01,2.00e-03,
2.00e-01,2.00e-03,
2.20e-01,1.84e-03,
2.20e-01,1.84e-03,
2.20e-01,1.52e-03,
2.20e-01,1.52e-03,
2.20e-01,1.84e-03,
2.20e-01,1.84e-03,
2.00e-01,1.92e-03,
2.00e-01,1.92e-03,
2.00e-01,1.76e-03,
2.00e-01,1.76e-03,
2.00e-01,1.68e-03,
2.00e-01,1.68e-03,
2.20e-01,1.84e-03,
2.20e-01,1.84e-03,
2.20e-01,2.00e-03,
2.20e-01,2.00e-03,
2.20e-01,1.68e-03,
2.20e-01,1.68e-03,
2.20e-01,1.60e-03,
2.20e-01,1.60e-03,
2.00e-01,2.00e-03,
2.00e-01,2.00e-03,
2.00e-01,2.00e-03,
2.00e-01,2.00e-03,
2.00e-01,1.84e-03,
2.00e-01,1.84e-03,
2.00e-01,1.68e-03,
2.00e-01,1.68e-03,
2.20e-01,2.08e-03,
2.20e-01,2.08e-03,
2.20e-01,1.36e-03,
2.20e-01,1.36e-03,
2.20e-01,1.84e-03,
2.20e-01,1.84e-03,
2.20e-01,1.68e-03,
2.20e-01,1.68e-03,
2.20e-01,1.84e-03,
2.20e-01,1.84e-03,
2.00e-01,2.00e-03,
2.00e-01,2.00e-03,
2.00e-01,1.76e-03,
2.00e-01,1.76e-03,
2.00e-01,1.28e-03,
2.00e-01,1.28e-03,
2.20e-01,2.08e-03,
2.20e-01,2.08e-03,
2.20e-01,1.76e-03,
2.20e-01,1.76e-03,
2.20e-01,2.40e-03,
2.20e-01,2.40e-03,
2.20e-01,1.92e-03,
2.20e-01,1.92e-03,
2.00e-01,2.00e-03,
2.00e-01,2.00e-03,
2.00e-01,2.00e-03,
2.00e-01,2.00e-03,
2.00e-01,1.76e-03,
2.00e-01,1.76e-03,
1.90e+00,1.44e-03,
1.90e+00,1.44e-03,
1.92e+00,1.44e-03,
1.92e+00,1.44e-03,
1.92e+00,1.44e-03,
1.92e+00,1.44e-03,
1.92e+00,1.28e-03,
1.92e+00,1.28e-03,
1.92e+00,1.60e-03,
1.92e+00,1.60e-03,
1.92e+00,1.68e-03,
1.92e+00,1.68e-03,
1.92e+00,1.44e-03,
1.92e+00,1.44e-03,
1.92e+00,1.52e-03,
1.92e+00,1.52e-03,
1.90e+00,1.44e-03,
1.90e+00,1.44e-03,
1.90e+00,1.36e-03,
1.90e+00,1.36e-03,
1.92e+00,1.60e-03,
1.92e+00,1.60e-03,
1.92e+00,1.52e-03,
1.92e+00,1.52e-03,
1.92e+00,1.68e-03,
1.92e+00,1.68e-03,
1.92e+00,1.52e-03,
1.92e+00,1.52e-03,
1.92e+00,2.00e-03,
1.92e+00,2.00e-03,
1.90e+00,1.44e-03,
1.90e+00,1.44e-03,
1.92e+00,1.68e-03,
1.92e+00,1.68e-03,
1.90e+00,1.36e-03,
1.90e+00,1.36e-03,
1.90e+00,1.60e-03,
1.90e+00,1.60e-03,
1.90e+00,1.60e-03,
1.90e+00,1.60e-03,
1.90e+00,1.44e-03,
1.90e+00,1.44e-03,
1.90e+00,1.84e-03,
1.90e+00,1.84e-03,
1.92e+00,1.52e-03,
1.92e+00,1.52e-03,
1.92e+00,1.52e-03,
1.92e+00,1.52e-03,
1.90e+00,1.68e-03,
1.90e+00,1.68e-03,
1.92e+00,1.68e-03,
1.92e+00,1.68e-03,
1.90e+00,1.36e-03,
1.90e+00,1.36e-03,
1.92e+00,1.52e-03,
1.92e+00,1.52e-03,
1.90e+00,1.28e-03,
1.90e+00,1.28e-03,
1.92e+00,1.60e-03,
1.92e+00,1.60e-03,
1.90e+00,1.44e-03,
1.90e+00,1.44e-03,
1.92e+00,1.68e-03,
1.92e+00,1.68e-03,
1.92e+00,1.44e-03,
1.92e+00,1.44e-03,
1.92e+00,2.00e-03,
1.92e+00,2.00e-03,
1.92e+00,1.12e-03,
1.92e+00,1.12e-03,
1.92e+00,1.52e-03,
1.92e+00,1.52e-03,
1.92e+00,1.28e-03,
1.92e+00,1.28e-03,
1.90e+00,1.68e-03,
1.90e+00,1.68e-03,
1.92e+00,1.20e-03,
1.92e+00,1.20e-03,
1.92e+00,1.28e-03,
1.92e+00,1.28e-03,
1.92e+00,1.28e-03,
1.92e+00,1.28e-03,
1.92e+00,8.80e-04,
1.92e+00,8.80e-04,
1.92e+00,9.60e-04,
1.92e+00,9.60e-04,
1.92e+00,9.60e-04,
1.92e+00,9.60e-04,
1.92e+00,8.80e-04,
1.92e+00,8.80e-04,
1.92e+00,8.80e-04,
1.92e+00,8.80e-04,
1.92e+00,6.40e-04,
1.92e+00,6.40e-04,
1.92e+00,2.40e-04,
1.92e+00,2.40e-04,
1.92e+00,2.40e-04,
1.92e+00,2.40e-04,
1.92e+00,3.20e-04,
1.92e+00,3.20e-04,
1.90e+00,-1.60e-04,
1.90e+00,-1.60e-04,
1.90e+00,-2.40e-04,
1.90e+00,-2.40e-04,
1.90e+00,-5.60e-04,
1.90e+00,-5.60e-04,
1.92e+00,-4.00e-04,
1.92e+00,-4.00e-04,
1.92e+00,-6.40e-04,
1.92e+00,-6.40e-04,
1.92e+00,-4.00e-04,
1.92e+00,-4.00e-04,
1.92e+00,-7.20e-04,
1.92e+00,-7.20e-04,
1.92e+00,-8.00e-04,
1.92e+00,-8.00e-04,
1.92e+00,-6.40e-04,
1.92e+00,-6.40e-04,
1.92e+00,-1.52e-03,
1.92e+00,-1.52e-03,
1.92e+00,-9.60e-04,
1.92e+00,-9.60e-04,
1.92e+00,-1.28e-03,
1.92e+00,-1.28e-03,
1.92e+00,-1.12e-03,
1.92e+00,-1.12e-03,
1.92e+00,-1.36e-03,
1.92e+00,-1.36e-03,
1.92e+00,-9.60e-04,
1.92e+00,-9.60e-04,
1.90e+00,-1.44e-03,
1.90e+00,-1.44e-03,
1.92e+00,-1.28e-03,
1.92e+00,-1.28e-03,
1.92e+00,-1.20e-03,
1.92e+00,-1.20e-03,
1.92e+00,-1.60e-03,
1.92e+00,-1.60e-03,
1.92e+00,-1.68e-03,
1.92e+00,-1.68e-03,
1.92e+00,-1.36e-03,
1.92e+00,-1.36e-03,
1.92e+00,-1.52e-03,
1.92e+00,-1.52e-03,
1.92e+00,-1.20e-03,
1.92e+00,-1.20e-03,
1.92e+00,-1.20e-03,
1.92e+00,-1.20e-03,
1.92e+00,-1.68e-03,
1.92e+00,-1.68e-03,
1.92e+00,-1.20e-03,
1.92e+00,-1.20e-03,
1.90e+00,-1.60e-03,
1.90e+00,-1.60e-03,
1.90e+00,-1.36e-03,
1.90e+00,-1.36e-03,
1.92e+00,-1.52e-03,
1.92e+00,-1.52e-03,
1.92e+00,-1.12e-03,
1.92e+00,-1.12e-03,
1.92e+00,-1.92e-03,
1.92e+00,-1.92e-03,
1.92e+00,-1.12e-03,
1.92e+00,-1.12e-03,
1.92e+00,-1.76e-03,
1.92e+00,-1.76e-03,
1.92e+00,-1.20e-03,
1.92e+00,-1.20e-03,
1.92e+00,-1.52e-03,
1.92e+00,-1.52e-03,
1.90e+00,-1.52e-03,
1.90e+00,-1.52e-03,
1.92e+00,-1.20e-03,
1.92e+00,-1.20e-03,
1.90e+00,-1.04e-03,
1.90e+00,-1.04e-03,
1.92e+00,-1.52e-03,
1.92e+00,-1.52e-03,
1.92e+00,-1.28e-03,
1.92e+00,-1.28e-03,
1.92e+00,-1.28e-03,
1.92e+00,-1.28e-03,
1.92e+00,-1.36e-03,
1.92e+00,-1.36e-03,
1.92e+00,-1.52e-03,
1.92e+00,-1.52e-03,
1.92e+00,-1.04e-03,
1.92e+00,-1.04e-03,
1.92e+00,-1.28e-03,
1.92e+00,-1.28e-03,
1.90e+00,-1.36e-03,
1.90e+00,-1.36e-03,
1.90e+00,-1.04e-03,
1.90e+00,-1.04e-03,
1.92e+00,-1.52e-03,
1.92e+00,-1.52e-03,
1.92e+00,-1.36e-03,
1.92e+00,-1.36e-03,
1.92e+00,-1.60e-03,
1.92e+00,-1.60e-03,
1.92e+00,-1.20e-03,
1.92e+00,-1.20e-03,
1.90e+00,-1.52e-03,
1.90e+00,-1.52e-03,
1.92e+00,-1.52e-03,
1.92e+00,-1.52e-03,
1.92e+00,-1.28e-03,
1.92e+00,-1.28e-03,
1.92e+00,-1.44e-03,
1.92e+00,-1.44e-03,
1.92e+00,-1.36e-03,
1.92e+00,-1.36e-03,
1.90e+00,-1.60e-03,
1.90e+00,-1.60e-03,
1.92e+00,-1.20e-03,
1.92e+00,-1.20e-03,
1.90e+00,-1.44e-03,
1.90e+00,-1.44e-03,
1.92e+00,-1.28e-03,
1.92e+00,-1.28e-03,
1.92e+00,-1.36e-03,
1.92e+00,-1.36e-03,
1.92e+00,-1.28e-03,
1.92e+00,-1.28e-03,
1.92e+00,-1.36e-03,
1.92e+00,-1.36e-03,
1.92e+00,-1.44e-03,
1.92e+00,-1.44e-03,
1.92e+00,-1.52e-03,
1.92e+00,-1.52e-03,
1.92e+00,-1.04e-03,
1.92e+00,-1.04e-03,
1.92e+00,-1.20e-03,
1.92e+00,-1.20e-03,
1.92e+00,-1.52e-03,
1.92e+00,-1.52e-03,
1.92e+00,-1.36e-03,
1.92e+00,-1.36e-03,
1.92e+00,-1.68e-03,
1.92e+00,-1.68e-03,
1.92e+00,-1.04e-03,
1.92e+00,-1.04e-03,
1.92e+00,-1.44e-03,
1.92e+00,-1.44e-03,
1.92e+00,-1.68e-03,
1.92e+00,-1.68e-03,
1.92e+00,-1.20e-03,
1.92e+00,-1.20e-03,
1.92e+00,-1.28e-03,
1.92e+00,-1.28e-03,
1.92e+00,-1.20e-03,
1.92e+00,-1.20e-03,
1.90e+00,-1.44e-03,
1.90e+00,-1.44e-03,
1.90e+00,-1.44e-03,
1.90e+00,-1.44e-03,
1.90e+00,-1.52e-03,
1.90e+00,-1.52e-03,
1.92e+00,-1.28e-03,
1.92e+00,-1.28e-03,
1.92e+00,-1.44e-03,
1.92e+00,-1.44e-03,
1.92e+00,-9.60e-04,
1.92e+00,-9.60e-04,
1.90e+00,-1.92e-03,
1.90e+00,-1.92e-03,
1.92e+00,-1.28e-03,
1.92e+00,-1.28e-03,
1.90e+00,-1.44e-03,
1.90e+00,-1.44e-03,
1.92e+00,-1.28e-03,
1.92e+00,-1.28e-03,
1.90e+00,-1.20e-03,
1.90e+00,-1.20e-03,
1.92e+00,-1.36e-03,
1.92e+00,-1.36e-03,
1.90e+00,-1.36e-03,
1.90e+00,-1.36e-03,
1.92e+00,-1.36e-03,
1.92e+00,-1.36e-03,
1.92e+00,-9.60e-04,
1.92e+00,-9.60e-04,
1.92e+00,-1.36e-03,
1.92e+00,-1.36e-03,
1.92e+00,-1.60e-03,
1.92e+00,-1.60e-03,
1.90e+00,-1.36e-03,
1.90e+00,-1.36e-03,
1.90e+00,-1.28e-03,
1.90e+00,-1.28e-03,
1.90e+00,-1.28e-03,
1.90e+00,-1.28e-03,
1.90e+00,-1.28e-03,
1.90e+00,-1.28e-03,
1.92e+00,-1.36e-03,
1.92e+00,-1.36e-03,
1.92e+00,-1.36e-03,
1.92e+00,-1.36e-03,
1.92e+00,-1.52e-03,
1.92e+00,-1.52e-03,
1.92e+00,-1.28e-03,
1.92e+00,-1.28e-03,
1.92e+00,-1.28e-03,
1.92e+00,-1.28e-03,
1.90e+00,-1.36e-03,
1.90e+00,-1.36e-03,
1.90e+00,-1.44e-03,
1.90e+00,-1.44e-03,
1.90e+00,-1.20e-03,
1.90e+00,-1.20e-03,
1.92e+00,-1.52e-03,
1.92e+00,-1.52e-03,
1.90e+00,-1.12e-03,
1.90e+00,-1.12e-03,
1.92e+00,-1.52e-03,
1.92e+00,-1.52e-03,
1.92e+00,-1.92e-03,
1.92e+00,-1.92e-03,
1.92e+00,-1.12e-03,
1.92e+00,-1.12e-03,
1.90e+00,-1.28e-03,
1.90e+00,-1.28e-03,
1.92e+00,-1.44e-03,
1.92e+00,-1.44e-03,
1.92e+00,-1.52e-03,
1.92e+00,-1.52e-03,
1.92e+00,-1.44e-03,
1.92e+00,-1.44e-03,
1.90e+00,-1.52e-03,
1.90e+00,-1.52e-03,
1.90e+00,-1.28e-03,
1.90e+00,-1.28e-03,
1.92e+00,-1.44e-03,
1.92e+00,-1.44e-03,
1.90e+00,-1.20e-03,
1.90e+00,-1.20e-03,
1.92e+00,-1.36e-03,
1.92e+00,-1.36e-03,
1.92e+00,-1.20e-03,
1.92e+00,-1.20e-03,
1.92e+00,-1.20e-03,
1.92e+00,-1.20e-03,
1.92e+00,-1.36e-03,
1.92e+00,-1.36e-03,
1.92e+00,-1.68e-03,
1.92e+00,-1.68e-03,
1.90e+00,-1.60e-03,
1.90e+00,-1.60e-03,
1.92e+00,-1.20e-03,
1.92e+00,-1.20e-03,
1.90e+00,-1.28e-03,
1.90e+00,-1.28e-03,
1.92e+00,-1.44e-03,
1.92e+00,-1.44e-03,
1.90e+00,-1.20e-03,
1.90e+00,-1.20e-03,
1.92e+00,-1.44e-03,
1.92e+00,-1.44e-03,
1.90e+00,-1.36e-03,
1.90e+00,-1.36e-03,
1.92e+00,-1.36e-03,
1.92e+00,-1.36e-03,
1.92e+00,-1.52e-03,
1.92e+00,-1.52e-03,
1.92e+00,-1.28e-03,
1.92e+00,-1.28e-03,
1.92e+00,-1.60e-03,
1.92e+00,-1.60e-03,
1.92e+00,-1.52e-03,
1.92e+00,-1.52e-03,
1.90e+00,-1.20e-03,
1.90e+00,-1.20e-03,
1.90e+00,-1.44e-03,
1.90e+00,-1.44e-03,
1.90e+00,-1.68e-03,
1.90e+00,-1.68e-03,
